Gemini gets Eurostat Data – DADM for Professionals 2025
…
--- Data Structure ---

print(glimpse(final_data_russia_imports))

Rows: 3,729
Columns: 6
$ country_name <chr> "Albania", "Albania", "Albania", "Albania", "Albania", "A…
$ country_code <chr> "AL", "AL", "AL", "AL", "AL", "AL", "AL", "AL", "AL", "AL…
$ time         <date> 1990-01-01, 1991-01-01, 1992-01-01, 1993-01-01, 1994-01-…
$ product      <chr> "Crude Oil", "Crude Oil", "Crude Oil", "Crude Oil", "Crud…
$ unit_code    <chr> "THS_T", "THS_T", "THS_T", "THS_T", "THS_T", "THS_T", "TH…
$ value        <dbl> 0, 0, 0, 0, 0, 0, 0, 0, 0, 0, 0, 0, 0, 0, 0, 0, 0, 0, 0, …
# A tibble: 3,729 × 6
   country_name country_code time       product   unit_code value
   <chr>        <chr>        <date>     <chr>     <chr>     <dbl>
 1 Albania      AL           1990-01-01 Crude Oil THS_T         0
 2 Albania      AL           1991-01-01 Crude Oil THS_T         0
 3 Albania      AL           1992-01-01 Crude Oil THS_T         0
 4 Albania      AL           1993-01-01 Crude Oil THS_T         0
 5 Albania      AL           1994-01-01 Crude Oil THS_T         0
 6 Albania      AL           1995-01-01 Crude Oil THS_T         0
 7 Albania      AL           1996-01-01 Crude Oil THS_T         0
 8 Albania      AL           1997-01-01 Crude Oil THS_T         0
 9 Albania      AL           1998-01-01 Crude Oil THS_T         0
10 Albania      AL           1999-01-01 Crude Oil THS_T         0
# ℹ 3,719 more rows
…
